{
	"Version": "2012-10-17",
	"Statement": [
		{
			"Sid": "RestrictRDSInstanceType",
			"Effect": "Deny",
			"Action": "rds:CreateDBInstance",
			"Resource": "arn:aws:rds:*",
			"Condition": {
				"StringNotLike": {
					"rds:DatabaseClass": [
						"db.t*",
						"db.m*",
						"db.r5.large",
						"db.r4.large"
					]
				}
			}
		},
		{
			"Sid": "RestrictRDSInstanceTypeNonDoc",
			"Effect": "Deny",
			"Action": "rds:CreateDBInstance",
			"Resource": "arn:aws:rds:*",
			"Condition": {
				"StringLike": {
					"rds:DatabaseClass": [
						"db.r5.large",
						"db.r4.large"
					],
					"rds:DatabaseEngine": [
						"mariadb*",
						"*sql*",
						"postgres*",
						"oracle*"
					]
				}
			}
		}
	]
}