{
    "Version": "2012-10-17",
    "Statement": {
        "Sid": "RestrictInstanceType",
        "Effect": "Deny",
        "Action": "ec2:RunInstances",
        "Resource": "arn:aws:ec2:*:*:instance/*",
        "Condition": {
            "StringNotEquals": {
                "ec2:InstanceType": [
                    "a1.medium",
                    "a1.large",
                    "t3.nano",
                    "t3.micro",
                    "t3.small",
                    "t3.medium",
                    "t2.nano",
                    "t2.micro",
                    "t2.small",
                    "t2.medium",
                    "t2.2xlarge",
                    "m5.large",
                    "m5.xlarge",
                    "m4.large",
                    "m4.xlarge",
                    "m4.4xlarge",
                    "c5.large",
                    "c5.xlarge",
                    "c4.large",
                    "c4.xlarge",
                    "r5.large",
                    "p3.2xlarge",
                    "i3.large",
                    "p2.xlarge",
                    "g3s.xlarge"
                ]
            }
        }
    }
}